\relax 
\providecommand\hyper@newdestlabel[2]{}
\providecommand\HyperFirstAtBeginDocument{\AtBeginDocument}
\HyperFirstAtBeginDocument{\ifx\hyper@anchor\@undefined
\global\let\oldcontentsline\contentsline
\gdef\contentsline#1#2#3#4{\oldcontentsline{#1}{#2}{#3}}
\global\let\oldnewlabel\newlabel
\gdef\newlabel#1#2{\newlabelxx{#1}#2}
\gdef\newlabelxx#1#2#3#4#5#6{\oldnewlabel{#1}{{#2}{#3}}}
\AtEndDocument{\ifx\hyper@anchor\@undefined
\let\contentsline\oldcontentsline
\let\newlabel\oldnewlabel
\fi}
\fi}
\global\let\hyper@last\relax 
\gdef\HyperFirstAtBeginDocument#1{#1}
\providecommand\HyField@AuxAddToFields[1]{}
\providecommand\HyField@AuxAddToCoFields[2]{}
\@writefile{lof}{\contentsline {figure}{\numberline {1}{\ignorespaces Plot of $f(x) = \qopname  \relax o{cos}(x) - x$ on $[-10,10]$ (made with \texttt  {gnuplot})}}{1}{figure.1}}
\@writefile{lof}{\contentsline {figure}{\numberline {2}{\ignorespaces Plot of iterations versus search result $x$, for threshold $10^{-4}$ and initial guess $x_0 = 3$ }}{2}{figure.2}}
\@writefile{lof}{\contentsline {figure}{\numberline {3}{\ignorespaces Plot of iterations versus search result $x$, for threshold $10^{-6}$ and initial guess $x_0 = 3$ }}{3}{figure.3}}
\@writefile{lof}{\contentsline {figure}{\numberline {4}{\ignorespaces Plot of iterations versus search result $x$, for threshold $10^{-8}$ and initial guess $x_0 = 3$ }}{4}{figure.4}}
\@writefile{lof}{\contentsline {figure}{\numberline {5}{\ignorespaces Plot of iterations versus search result $x$, for threshold $10^{-4}$ and initial guess $x_0 = -10.2$ }}{5}{figure.5}}
\@writefile{lof}{\contentsline {figure}{\numberline {6}{\ignorespaces Plot of iterations versus search result $x$, for threshold $10^{-6}$ and initial guess $x_0 = -10.2$ }}{6}{figure.6}}
\@writefile{lof}{\contentsline {figure}{\numberline {7}{\ignorespaces Plot of iterations versus search result $x$, for threshold $10^{-8}$ and initial guess $x_0 = -10.2$ }}{7}{figure.7}}
\@writefile{lof}{\contentsline {figure}{\numberline {8}{\ignorespaces Plot of last five iterations versus search results $x$, for threshold $10^{-8}$ and initial guess $x_0 = -10.2$ }}{8}{figure.8}}
