\relax 
\providecommand\hyper@newdestlabel[2]{}
\providecommand\HyperFirstAtBeginDocument{\AtBeginDocument}
\HyperFirstAtBeginDocument{\ifx\hyper@anchor\@undefined
\global\let\oldcontentsline\contentsline
\gdef\contentsline#1#2#3#4{\oldcontentsline{#1}{#2}{#3}}
\global\let\oldnewlabel\newlabel
\gdef\newlabel#1#2{\newlabelxx{#1}#2}
\gdef\newlabelxx#1#2#3#4#5#6{\oldnewlabel{#1}{{#2}{#3}}}
\AtEndDocument{\ifx\hyper@anchor\@undefined
\let\contentsline\oldcontentsline
\let\newlabel\oldnewlabel
\fi}
\fi}
\global\let\hyper@last\relax 
\gdef\HyperFirstAtBeginDocument#1{#1}
\providecommand\HyField@AuxAddToFields[1]{}
\providecommand\HyField@AuxAddToCoFields[2]{}
\newlabel{one}{{1}{1}{Introduction}{equation.0.1}{}}
\newlabel{two}{{2}{1}{Introduction}{equation.0.2}{}}
\@writefile{loa}{\contentsline {algocf}{\numberline {1}{\ignorespaces $LU$-decomposition}}{2}{algocf.1}}
\@writefile{loa}{\contentsline {algocf}{\numberline {2}{\ignorespaces $LUP$-decomposition}}{2}{algocf.2}}
\@writefile{lof}{\contentsline {figure}{\numberline {1}{\ignorespaces Plot of matrix $A$ for the first test case}}{4}{figure.1}}
\@writefile{lof}{\contentsline {figure}{\numberline {2}{\ignorespaces Plot of solution and $b$ vectors for the first test case}}{4}{figure.2}}
\@writefile{lof}{\contentsline {figure}{\numberline {3}{\ignorespaces Plot of matrix $A$ for the second test case}}{5}{figure.3}}
\@writefile{lof}{\contentsline {figure}{\numberline {4}{\ignorespaces Plot of solution and $b$ vectors for the second test case}}{5}{figure.4}}
\@writefile{lof}{\contentsline {figure}{\numberline {5}{\ignorespaces Plot of matrix $A$ for the third test case}}{6}{figure.5}}
\@writefile{lof}{\contentsline {figure}{\numberline {6}{\ignorespaces Plot of solution and $b$ vectors for the third test case}}{6}{figure.6}}
